ISO-10303-21;
HEADER;
/* Generated by software containing ST-Developer
 * from STEP Tools, Inc. (www.steptools.com) 
 */

FILE_DESCRIPTION(
/* description */ (''),
/* implementation_level */ '2;1');

FILE_NAME(
/* name */ 
'C:\\Users\\AndrzejPapierok\\Desktop\\DetectionTestCases\\Chamfers\\Ch
amfersConnected.stp',
/* time_stamp */ '2022-09-07T12:19:31+02:00',
/* author */ ('AndrzejPapierok'),
/* organization */ (''),
/* preprocessor_version */ 'ST-DEVELOPER v19',
/* originating_system */ 'Autodesk Inventor 2023',
/* authorisation */ '');

FILE_SCHEMA (('AUTOMOTIVE_DESIGN { 1 0 10303 214 3 1 1 }'));
ENDSEC;

DATA;
#10=MECHANICAL_DESIGN_GEOMETRIC_PRESENTATION_REPRESENTATION('',(#13),#429);
#11=SHAPE_REPRESENTATION_RELATIONSHIP('SRR','None',#436,#12);
#12=ADVANCED_BREP_SHAPE_REPRESENTATION('',(#14),#428);
#13=STYLED_ITEM('',(#445),#14);
#14=MANIFOLD_SOLID_BREP('Solid1',#257);
#15=FACE_OUTER_BOUND('',#29,.T.);
#16=FACE_OUTER_BOUND('',#30,.T.);
#17=FACE_OUTER_BOUND('',#31,.T.);
#18=FACE_OUTER_BOUND('',#32,.T.);
#19=FACE_OUTER_BOUND('',#33,.T.);
#20=FACE_OUTER_BOUND('',#34,.T.);
#21=FACE_OUTER_BOUND('',#35,.T.);
#22=FACE_OUTER_BOUND('',#36,.T.);
#23=FACE_OUTER_BOUND('',#37,.T.);
#24=FACE_OUTER_BOUND('',#38,.T.);
#25=FACE_OUTER_BOUND('',#39,.T.);
#26=FACE_OUTER_BOUND('',#40,.T.);
#27=FACE_OUTER_BOUND('',#41,.T.);
#28=FACE_OUTER_BOUND('',#42,.T.);
#29=EDGE_LOOP('',(#163,#164,#165,#166,#167));
#30=EDGE_LOOP('',(#168,#169,#170,#171,#172,#173));
#31=EDGE_LOOP('',(#174,#175,#176,#177));
#32=EDGE_LOOP('',(#178,#179,#180,#181));
#33=EDGE_LOOP('',(#182,#183,#184));
#34=EDGE_LOOP('',(#185,#186,#187,#188));
#35=EDGE_LOOP('',(#189,#190,#191,#192,#193));
#36=EDGE_LOOP('',(#194,#195,#196,#197,#198,#199));
#37=EDGE_LOOP('',(#200,#201,#202,#203,#204));
#38=EDGE_LOOP('',(#205,#206,#207,#208));
#39=EDGE_LOOP('',(#209,#210,#211,#212,#213,#214,#215));
#40=EDGE_LOOP('',(#216,#217,#218,#219));
#41=EDGE_LOOP('',(#220,#221,#222,#223));
#42=EDGE_LOOP('',(#224,#225,#226,#227,#228));
#43=LINE('',#361,#76);
#44=LINE('',#363,#77);
#45=LINE('',#365,#78);
#46=LINE('',#367,#79);
#47=LINE('',#368,#80);
#48=LINE('',#371,#81);
#49=LINE('',#373,#82);
#50=LINE('',#375,#83);
#51=LINE('',#377,#84);
#52=LINE('',#378,#85);
#53=LINE('',#381,#86);
#54=LINE('',#382,#87);
#55=LINE('',#385,#88);
#56=LINE('',#386,#89);
#57=LINE('',#389,#90);
#58=LINE('',#390,#91);
#59=LINE('',#392,#92);
#60=LINE('',#396,#93);
#61=LINE('',#397,#94);
#62=LINE('',#399,#95);
#63=LINE('',#400,#96);
#64=LINE('',#403,#97);
#65=LINE('',#405,#98);
#66=LINE('',#406,#99);
#67=LINE('',#409,#100);
#68=LINE('',#411,#101);
#69=LINE('',#412,#102);
#70=LINE('',#415,#103);
#71=LINE('',#416,#104);
#72=LINE('',#418,#105);
#73=LINE('',#420,#106);
#74=LINE('',#421,#107);
#75=LINE('',#423,#108);
#76=VECTOR('',#298,10.);
#77=VECTOR('',#299,10.);
#78=VECTOR('',#300,10.);
#79=VECTOR('',#301,10.);
#80=VECTOR('',#302,10.);
#81=VECTOR('',#305,10.);
#82=VECTOR('',#306,10.);
#83=VECTOR('',#307,10.);
#84=VECTOR('',#308,10.);
#85=VECTOR('',#309,10.);
#86=VECTOR('',#312,10.);
#87=VECTOR('',#313,10.);
#88=VECTOR('',#316,10.);
#89=VECTOR('',#317,10.);
#90=VECTOR('',#320,10.);
#91=VECTOR('',#321,10.);
#92=VECTOR('',#324,10.);
#93=VECTOR('',#327,10.);
#94=VECTOR('',#328,10.);
#95=VECTOR('',#329,10.);
#96=VECTOR('',#330,10.);
#97=VECTOR('',#333,10.);
#98=VECTOR('',#334,10.);
#99=VECTOR('',#335,10.);
#100=VECTOR('',#338,10.);
#101=VECTOR('',#339,10.);
#102=VECTOR('',#340,10.);
#103=VECTOR('',#343,10.);
#104=VECTOR('',#344,10.);
#105=VECTOR('',#347,10.);
#106=VECTOR('',#348,10.);
#107=VECTOR('',#349,10.);
#108=VECTOR('',#352,10.);
#109=VERTEX_POINT('',#359);
#110=VERTEX_POINT('',#360);
#111=VERTEX_POINT('',#362);
#112=VERTEX_POINT('',#364);
#113=VERTEX_POINT('',#366);
#114=VERTEX_POINT('',#370);
#115=VERTEX_POINT('',#372);
#116=VERTEX_POINT('',#374);
#117=VERTEX_POINT('',#376);
#118=VERTEX_POINT('',#380);
#119=VERTEX_POINT('',#384);
#120=VERTEX_POINT('',#388);
#121=VERTEX_POINT('',#394);
#122=VERTEX_POINT('',#395);
#123=VERTEX_POINT('',#398);
#124=VERTEX_POINT('',#402);
#125=VERTEX_POINT('',#404);
#126=VERTEX_POINT('',#408);
#127=VERTEX_POINT('',#410);
#128=VERTEX_POINT('',#414);
#129=VERTEX_POINT('',#419);
#130=EDGE_CURVE('',#109,#110,#43,.T.);
#131=EDGE_CURVE('',#110,#111,#44,.T.);
#132=EDGE_CURVE('',#111,#112,#45,.T.);
#133=EDGE_CURVE('',#112,#113,#46,.T.);
#134=EDGE_CURVE('',#113,#109,#47,.T.);
#135=EDGE_CURVE('',#114,#111,#48,.T.);
#136=EDGE_CURVE('',#115,#114,#49,.T.);
#137=EDGE_CURVE('',#116,#115,#50,.T.);
#138=EDGE_CURVE('',#117,#116,#51,.T.);
#139=EDGE_CURVE('',#112,#117,#52,.T.);
#140=EDGE_CURVE('',#118,#110,#53,.T.);
#141=EDGE_CURVE('',#114,#118,#54,.T.);
#142=EDGE_CURVE('',#109,#119,#55,.T.);
#143=EDGE_CURVE('',#119,#118,#56,.T.);
#144=EDGE_CURVE('',#120,#119,#57,.T.);
#145=EDGE_CURVE('',#118,#120,#58,.T.);
#146=EDGE_CURVE('',#120,#115,#59,.T.);
#147=EDGE_CURVE('',#121,#122,#60,.T.);
#148=EDGE_CURVE('',#122,#120,#61,.T.);
#149=EDGE_CURVE('',#119,#123,#62,.T.);
#150=EDGE_CURVE('',#123,#121,#63,.T.);
#151=EDGE_CURVE('',#124,#122,#64,.T.);
#152=EDGE_CURVE('',#125,#124,#65,.T.);
#153=EDGE_CURVE('',#116,#125,#66,.T.);
#154=EDGE_CURVE('',#121,#126,#67,.T.);
#155=EDGE_CURVE('',#126,#127,#68,.T.);
#156=EDGE_CURVE('',#124,#127,#69,.T.);
#157=EDGE_CURVE('',#127,#128,#70,.T.);
#158=EDGE_CURVE('',#128,#125,#71,.T.);
#159=EDGE_CURVE('',#117,#128,#72,.T.);
#160=EDGE_CURVE('',#129,#126,#73,.T.);
#161=EDGE_CURVE('',#113,#129,#74,.T.);
#162=EDGE_CURVE('',#123,#129,#75,.T.);
#163=ORIENTED_EDGE('',*,*,#130,.T.);
#164=ORIENTED_EDGE('',*,*,#131,.T.);
#165=ORIENTED_EDGE('',*,*,#132,.T.);
#166=ORIENTED_EDGE('',*,*,#133,.T.);
#167=ORIENTED_EDGE('',*,*,#134,.T.);
#168=ORIENTED_EDGE('',*,*,#132,.F.);
#169=ORIENTED_EDGE('',*,*,#135,.F.);
#170=ORIENTED_EDGE('',*,*,#136,.F.);
#171=ORIENTED_EDGE('',*,*,#137,.F.);
#172=ORIENTED_EDGE('',*,*,#138,.F.);
#173=ORIENTED_EDGE('',*,*,#139,.F.);
#174=ORIENTED_EDGE('',*,*,#131,.F.);
#175=ORIENTED_EDGE('',*,*,#140,.F.);
#176=ORIENTED_EDGE('',*,*,#141,.F.);
#177=ORIENTED_EDGE('',*,*,#135,.T.);
#178=ORIENTED_EDGE('',*,*,#130,.F.);
#179=ORIENTED_EDGE('',*,*,#142,.T.);
#180=ORIENTED_EDGE('',*,*,#143,.T.);
#181=ORIENTED_EDGE('',*,*,#140,.T.);
#182=ORIENTED_EDGE('',*,*,#144,.F.);
#183=ORIENTED_EDGE('',*,*,#145,.F.);
#184=ORIENTED_EDGE('',*,*,#143,.F.);
#185=ORIENTED_EDGE('',*,*,#136,.T.);
#186=ORIENTED_EDGE('',*,*,#141,.T.);
#187=ORIENTED_EDGE('',*,*,#145,.T.);
#188=ORIENTED_EDGE('',*,*,#146,.T.);
#189=ORIENTED_EDGE('',*,*,#147,.T.);
#190=ORIENTED_EDGE('',*,*,#148,.T.);
#191=ORIENTED_EDGE('',*,*,#144,.T.);
#192=ORIENTED_EDGE('',*,*,#149,.T.);
#193=ORIENTED_EDGE('',*,*,#150,.T.);
#194=ORIENTED_EDGE('',*,*,#146,.F.);
#195=ORIENTED_EDGE('',*,*,#148,.F.);
#196=ORIENTED_EDGE('',*,*,#151,.F.);
#197=ORIENTED_EDGE('',*,*,#152,.F.);
#198=ORIENTED_EDGE('',*,*,#153,.F.);
#199=ORIENTED_EDGE('',*,*,#137,.T.);
#200=ORIENTED_EDGE('',*,*,#147,.F.);
#201=ORIENTED_EDGE('',*,*,#154,.T.);
#202=ORIENTED_EDGE('',*,*,#155,.T.);
#203=ORIENTED_EDGE('',*,*,#156,.F.);
#204=ORIENTED_EDGE('',*,*,#151,.T.);
#205=ORIENTED_EDGE('',*,*,#152,.T.);
#206=ORIENTED_EDGE('',*,*,#156,.T.);
#207=ORIENTED_EDGE('',*,*,#157,.T.);
#208=ORIENTED_EDGE('',*,*,#158,.T.);
#209=ORIENTED_EDGE('',*,*,#133,.F.);
#210=ORIENTED_EDGE('',*,*,#139,.T.);
#211=ORIENTED_EDGE('',*,*,#159,.T.);
#212=ORIENTED_EDGE('',*,*,#157,.F.);
#213=ORIENTED_EDGE('',*,*,#155,.F.);
#214=ORIENTED_EDGE('',*,*,#160,.F.);
#215=ORIENTED_EDGE('',*,*,#161,.F.);
#216=ORIENTED_EDGE('',*,*,#150,.F.);
#217=ORIENTED_EDGE('',*,*,#162,.T.);
#218=ORIENTED_EDGE('',*,*,#160,.T.);
#219=ORIENTED_EDGE('',*,*,#154,.F.);
#220=ORIENTED_EDGE('',*,*,#158,.F.);
#221=ORIENTED_EDGE('',*,*,#159,.F.);
#222=ORIENTED_EDGE('',*,*,#138,.T.);
#223=ORIENTED_EDGE('',*,*,#153,.T.);
#224=ORIENTED_EDGE('',*,*,#134,.F.);
#225=ORIENTED_EDGE('',*,*,#161,.T.);
#226=ORIENTED_EDGE('',*,*,#162,.F.);
#227=ORIENTED_EDGE('',*,*,#149,.F.);
#228=ORIENTED_EDGE('',*,*,#142,.F.);
#229=PLANE('',#280);
#230=PLANE('',#281);
#231=PLANE('',#282);
#232=PLANE('',#283);
#233=PLANE('',#284);
#234=PLANE('',#285);
#235=PLANE('',#286);
#236=PLANE('',#287);
#237=PLANE('',#288);
#238=PLANE('',#289);
#239=PLANE('',#290);
#240=PLANE('',#291);
#241=PLANE('',#292);
#242=PLANE('',#293);
#243=ADVANCED_FACE('',(#15),#229,.T.);
#244=ADVANCED_FACE('',(#16),#230,.F.);
#245=ADVANCED_FACE('',(#17),#231,.T.);
#246=ADVANCED_FACE('',(#18),#232,.T.);
#247=ADVANCED_FACE('',(#19),#233,.T.);
#248=ADVANCED_FACE('',(#20),#234,.T.);
#249=ADVANCED_FACE('',(#21),#235,.T.);
#250=ADVANCED_FACE('',(#22),#236,.T.);
#251=ADVANCED_FACE('',(#23),#237,.T.);
#252=ADVANCED_FACE('',(#24),#238,.T.);
#253=ADVANCED_FACE('',(#25),#239,.T.);
#254=ADVANCED_FACE('',(#26),#240,.T.);
#255=ADVANCED_FACE('',(#27),#241,.T.);
#256=ADVANCED_FACE('',(#28),#242,.T.);
#257=CLOSED_SHELL('',(#243,#244,#245,#246,#247,#248,#249,#250,#251,#252,
#253,#254,#255,#256));
#258=DERIVED_UNIT_ELEMENT(#261,1.);
#259=DERIVED_UNIT_ELEMENT(#431,-3.);
#260=DIMENSIONAL_EXPONENTS(1.,0.,0.,0.,0.,0.,0.);
#261=(
CONVERSION_BASED_UNIT('gram',#263)
MASS_UNIT()
NAMED_UNIT(#260)
);
#262=(
MASS_UNIT()
NAMED_UNIT(*)
SI_UNIT(.KILO.,.GRAM.)
);
#263=MASS_MEASURE_WITH_UNIT(MASS_MEASURE(0.001),#262);
#264=DERIVED_UNIT((#258,#259));
#265=MEASURE_REPRESENTATION_ITEM('density measure',
POSITIVE_RATIO_MEASURE(1.),#264);
#266=PROPERTY_DEFINITION_REPRESENTATION(#271,#268);
#267=PROPERTY_DEFINITION_REPRESENTATION(#272,#269);
#268=REPRESENTATION('material name',(#270),#428);
#269=REPRESENTATION('density',(#265),#428);
#270=DESCRIPTIVE_REPRESENTATION_ITEM('Generic','Generic');
#271=PROPERTY_DEFINITION('material property','material name',#438);
#272=PROPERTY_DEFINITION('material property','density of part',#438);
#273=DATE_TIME_ROLE('creation_date');
#274=APPLIED_DATE_AND_TIME_ASSIGNMENT(#275,#273,(#438));
#275=DATE_AND_TIME(#276,#277);
#276=CALENDAR_DATE(2022,7,9);
#277=LOCAL_TIME(0,0,0.,#278);
#278=COORDINATED_UNIVERSAL_TIME_OFFSET(0,0,.BEHIND.);
#279=AXIS2_PLACEMENT_3D('placement',#357,#294,#295);
#280=AXIS2_PLACEMENT_3D('',#358,#296,#297);
#281=AXIS2_PLACEMENT_3D('',#369,#303,#304);
#282=AXIS2_PLACEMENT_3D('',#379,#310,#311);
#283=AXIS2_PLACEMENT_3D('',#383,#314,#315);
#284=AXIS2_PLACEMENT_3D('',#387,#318,#319);
#285=AXIS2_PLACEMENT_3D('',#391,#322,#323);
#286=AXIS2_PLACEMENT_3D('',#393,#325,#326);
#287=AXIS2_PLACEMENT_3D('',#401,#331,#332);
#288=AXIS2_PLACEMENT_3D('',#407,#336,#337);
#289=AXIS2_PLACEMENT_3D('',#413,#341,#342);
#290=AXIS2_PLACEMENT_3D('',#417,#345,#346);
#291=AXIS2_PLACEMENT_3D('',#422,#350,#351);
#292=AXIS2_PLACEMENT_3D('',#424,#353,#354);
#293=AXIS2_PLACEMENT_3D('',#425,#355,#356);
#294=DIRECTION('axis',(0.,0.,1.));
#295=DIRECTION('refdir',(1.,0.,0.));
#296=DIRECTION('center_axis',(0.707106781186548,-0.707106781186548,0.));
#297=DIRECTION('ref_axis',(0.,0.,-1.));
#298=DIRECTION('',(-0.577350269189626,-0.577350269189626,-0.577350269189626));
#299=DIRECTION('',(0.,0.,-1.));
#300=DIRECTION('',(0.707106781186548,0.707106781186548,0.));
#301=DIRECTION('',(0.,0.,1.));
#302=DIRECTION('',(-0.707106781186548,-0.707106781186548,0.));
#303=DIRECTION('center_axis',(0.,0.,1.));
#304=DIRECTION('ref_axis',(1.,0.,0.));
#305=DIRECTION('',(1.,0.,0.));
#306=DIRECTION('',(0.707106781186548,-0.707106781186548,0.));
#307=DIRECTION('',(0.,-1.,0.));
#308=DIRECTION('',(-1.,0.,0.));
#309=DIRECTION('',(0.,1.,0.));
#310=DIRECTION('center_axis',(0.,-1.,0.));
#311=DIRECTION('ref_axis',(1.,0.,0.));
#312=DIRECTION('',(1.,0.,0.));
#313=DIRECTION('',(0.,0.,1.));
#314=DIRECTION('center_axis',(0.,-0.707106781186548,0.707106781186548));
#315=DIRECTION('ref_axis',(1.,0.,0.));
#316=DIRECTION('',(-1.,0.,0.));
#317=DIRECTION('',(7.85046229341888E-16,-0.707106781186547,-0.707106781186547));
#318=DIRECTION('center_axis',(-0.577350269189626,-0.577350269189626,0.577350269189625));
#319=DIRECTION('ref_axis',(0.707106781186547,0.,0.707106781186548));
#320=DIRECTION('',(0.707106781186547,0.,0.707106781186547));
#321=DIRECTION('',(-0.707106781186547,0.707106781186547,0.));
#322=DIRECTION('center_axis',(-0.707106781186548,-0.707106781186548,0.));
#323=DIRECTION('ref_axis',(0.,0.,1.));
#324=DIRECTION('',(0.,0.,-1.));
#325=DIRECTION('center_axis',(-0.707106781186548,0.,0.707106781186548));
#326=DIRECTION('ref_axis',(0.707106781186548,0.,0.707106781186548));
#327=DIRECTION('',(-0.678598344545847,0.281084637714821,-0.678598344545847));
#328=DIRECTION('',(0.,-1.,0.));
#329=DIRECTION('',(0.,1.,0.));
#330=DIRECTION('',(-0.577350269189626,0.577350269189626,-0.577350269189626));
#331=DIRECTION('center_axis',(-1.,0.,0.));
#332=DIRECTION('ref_axis',(0.,-1.,0.));
#333=DIRECTION('',(0.,-0.382683432365091,0.923879532511286));
#334=DIRECTION('',(0.,-0.195090322016129,0.98078528040323));
#335=DIRECTION('',(0.,0.,1.));
#336=DIRECTION('center_axis',(0.,0.923879532511286,0.382683432365091));
#337=DIRECTION('ref_axis',(0.,-0.382683432365091,0.923879532511286));
#338=DIRECTION('',(1.,0.,0.));
#339=DIRECTION('',(0.,0.382683432365091,-0.923879532511286));
#340=DIRECTION('',(1.,0.,0.));
#341=DIRECTION('center_axis',(0.,0.98078528040323,0.195090322016129));
#342=DIRECTION('ref_axis',(0.,-0.195090322016129,0.98078528040323));
#343=DIRECTION('',(0.,0.195090322016129,-0.98078528040323));
#344=DIRECTION('',(-1.,0.,0.));
#345=DIRECTION('center_axis',(1.,0.,0.));
#346=DIRECTION('ref_axis',(0.,1.,0.));
#347=DIRECTION('',(0.,0.,1.));
#348=DIRECTION('',(0.,0.707106781186548,-0.707106781186548));
#349=DIRECTION('',(0.,1.,0.));
#350=DIRECTION('center_axis',(0.,0.707106781186548,0.707106781186548));
#351=DIRECTION('ref_axis',(1.,0.,0.));
#352=DIRECTION('',(1.,0.,0.));
#353=DIRECTION('center_axis',(0.,1.,0.));
#354=DIRECTION('ref_axis',(-1.,0.,0.));
#355=DIRECTION('center_axis',(0.,0.,1.));
#356=DIRECTION('ref_axis',(1.,0.,0.));
#357=CARTESIAN_POINT('',(0.,0.,0.));
#358=CARTESIAN_POINT('Origin',(18.5,-13.5,0.));
#359=CARTESIAN_POINT('',(19.,-13.,10.));
#360=CARTESIAN_POINT('',(17.,-15.,8.));
#361=CARTESIAN_POINT('',(12.,-20.,3.));
#362=CARTESIAN_POINT('',(17.,-15.,0.));
#363=CARTESIAN_POINT('',(17.,-15.,0.));
#364=CARTESIAN_POINT('',(20.,-12.,0.));
#365=CARTESIAN_POINT('',(17.25,-14.75,0.));
#366=CARTESIAN_POINT('',(20.,-12.,10.));
#367=CARTESIAN_POINT('',(20.,-12.,0.));
#368=CARTESIAN_POINT('',(17.25,-14.75,10.));
#369=CARTESIAN_POINT('Origin',(0.,0.,0.));
#370=CARTESIAN_POINT('',(-18.,-15.,0.));
#371=CARTESIAN_POINT('',(-20.,-15.,0.));
#372=CARTESIAN_POINT('',(-20.,-13.,0.));
#373=CARTESIAN_POINT('',(-17.75,-15.25,0.));
#374=CARTESIAN_POINT('',(-20.,15.,0.));
#375=CARTESIAN_POINT('',(-20.,15.,0.));
#376=CARTESIAN_POINT('',(20.,15.,0.));
#377=CARTESIAN_POINT('',(20.,15.,0.));
#378=CARTESIAN_POINT('',(20.,-15.,0.));
#379=CARTESIAN_POINT('Origin',(-20.,-15.,0.));
#380=CARTESIAN_POINT('',(-18.,-15.,8.));
#381=CARTESIAN_POINT('',(-10.,-15.,8.));
#382=CARTESIAN_POINT('',(-18.,-15.,0.));
#383=CARTESIAN_POINT('Origin',(-10.,-14.,9.));
#384=CARTESIAN_POINT('',(-18.,-13.,10.));
#385=CARTESIAN_POINT('',(-10.,-13.,10.));
#386=CARTESIAN_POINT('',(-18.,-13.,10.));
#387=CARTESIAN_POINT('Origin',(-18.,-15.,8.));
#388=CARTESIAN_POINT('',(-20.,-13.,8.));
#389=CARTESIAN_POINT('',(-20.,-13.,8.));
#390=CARTESIAN_POINT('',(-18.,-15.,8.));
#391=CARTESIAN_POINT('Origin',(-19.,-14.,0.));
#392=CARTESIAN_POINT('',(-20.,-13.,0.));
#393=CARTESIAN_POINT('Origin',(-19.,7.5,9.));
#394=CARTESIAN_POINT('',(-18.5857864376269,13.5857864376269,9.4142135623731));
#395=CARTESIAN_POINT('',(-20.,14.1715728752538,8.));
#396=CARTESIAN_POINT('',(-10.9235580656773,10.4119875279654,17.0764419343227));
#397=CARTESIAN_POINT('',(-20.,7.5,8.));
#398=CARTESIAN_POINT('',(-18.,13.,10.));
#399=CARTESIAN_POINT('',(-18.,7.5,10.));
#400=CARTESIAN_POINT('',(-13.0833333333333,8.08333333333333,14.9166666666667));
#401=CARTESIAN_POINT('Origin',(-20.,15.,0.));
#402=CARTESIAN_POINT('',(-20.,14.2346331352698,7.84775906502258));
#403=CARTESIAN_POINT('',(-20.,15.7071067811865,4.29289321881346));
#404=CARTESIAN_POINT('',(-20.,15.,4.));
#405=CARTESIAN_POINT('',(-20.,15.1913417161825,3.03806023374436));
#406=CARTESIAN_POINT('',(-20.,15.,0.));
#407=CARTESIAN_POINT('Origin',(15.,14.2928932188135,7.70710678118655));
#408=CARTESIAN_POINT('',(20.,13.5857864376269,9.4142135623731));
#409=CARTESIAN_POINT('',(15.,13.5857864376269,9.4142135623731));
#410=CARTESIAN_POINT('',(20.,14.2346331352698,7.84775906502258));
#411=CARTESIAN_POINT('',(20.,13.5104076400856,9.59619407771258));
#412=CARTESIAN_POINT('',(17.5,14.2346331352698,7.84775906502258));
#413=CARTESIAN_POINT('Origin',(17.5,14.6173165676349,5.92387953251129));
#414=CARTESIAN_POINT('',(20.,15.,4.));
#415=CARTESIAN_POINT('',(20.,14.6204382100172,5.90818597648254));
#416=CARTESIAN_POINT('',(17.5,15.,4.));
#417=CARTESIAN_POINT('Origin',(20.,-15.,0.));
#418=CARTESIAN_POINT('',(20.,15.,0.));
#419=CARTESIAN_POINT('',(20.,13.,10.));
#420=CARTESIAN_POINT('',(20.,9.,14.));
#421=CARTESIAN_POINT('',(20.,-15.,10.));
#422=CARTESIAN_POINT('Origin',(10.,14.,9.));
#423=CARTESIAN_POINT('',(10.,13.,10.));
#424=CARTESIAN_POINT('Origin',(20.,15.,0.));
#425=CARTESIAN_POINT('Origin',(0.,0.,10.));
#426=UNCERTAINTY_MEASURE_WITH_UNIT(LENGTH_MEASURE(0.01),#430,
'DISTANCE_ACCURACY_VALUE',
'Maximum model space distance between geometric entities at asserted c
onnectivities');
#427=UNCERTAINTY_MEASURE_WITH_UNIT(LENGTH_MEASURE(0.01),#430,
'DISTANCE_ACCURACY_VALUE',
'Maximum model space distance between geometric entities at asserted c
onnectivities');
#428=(
GEOMETRIC_REPRESENTATION_CONTEXT(3)
GLOBAL_UNCERTAINTY_ASSIGNED_CONTEXT((#426))
GLOBAL_UNIT_ASSIGNED_CONTEXT((#430,#432,#433))
REPRESENTATION_CONTEXT('','3D')
);
#429=(
GEOMETRIC_REPRESENTATION_CONTEXT(3)
GLOBAL_UNCERTAINTY_ASSIGNED_CONTEXT((#427))
GLOBAL_UNIT_ASSIGNED_CONTEXT((#430,#432,#433))
REPRESENTATION_CONTEXT('','3D')
);
#430=(
LENGTH_UNIT()
NAMED_UNIT(*)
SI_UNIT(.MILLI.,.METRE.)
);
#431=(
LENGTH_UNIT()
NAMED_UNIT(*)
SI_UNIT(.CENTI.,.METRE.)
);
#432=(
NAMED_UNIT(*)
PLANE_ANGLE_UNIT()
SI_UNIT($,.RADIAN.)
);
#433=(
NAMED_UNIT(*)
SI_UNIT($,.STERADIAN.)
SOLID_ANGLE_UNIT()
);
#434=SHAPE_DEFINITION_REPRESENTATION(#435,#436);
#435=PRODUCT_DEFINITION_SHAPE('',$,#438);
#436=SHAPE_REPRESENTATION('',(#279),#428);
#437=PRODUCT_DEFINITION_CONTEXT('part definition',#442,'design');
#438=PRODUCT_DEFINITION('Part12','Part12',#439,#437);
#439=PRODUCT_DEFINITION_FORMATION('',$,#444);
#440=PRODUCT_RELATED_PRODUCT_CATEGORY('Part12','Part12',(#444));
#441=APPLICATION_PROTOCOL_DEFINITION('international standard',
'automotive_design',2009,#442);
#442=APPLICATION_CONTEXT(
'Core Data for Automotive Mechanical Design Process');
#443=PRODUCT_CONTEXT('part definition',#442,'mechanical');
#444=PRODUCT('Part12','Part12',$,(#443));
#445=PRESENTATION_STYLE_ASSIGNMENT((#446));
#446=SURFACE_STYLE_USAGE(.BOTH.,#449);
#447=SURFACE_STYLE_RENDERING_WITH_PROPERTIES($,#453,(#448));
#448=SURFACE_STYLE_TRANSPARENT(0.);
#449=SURFACE_SIDE_STYLE('',(#450,#447));
#450=SURFACE_STYLE_FILL_AREA(#451);
#451=FILL_AREA_STYLE('',(#452));
#452=FILL_AREA_STYLE_COLOUR('',#453);
#453=COLOUR_RGB('',0.749019607843137,0.749019607843137,0.749019607843137);
ENDSEC;
END-ISO-10303-21;
