ISO-10303-21;
HEADER;
/* Generated by software containing ST-Developer
 * from STEP Tools, Inc. (www.steptools.com) 
 */

FILE_DESCRIPTION(
/* description */ (''),
/* implementation_level */ '2;1');

FILE_NAME(
/* name */ 
'C:\\Users\\pschwitalla\\OneDrive - igus GmbH\\Documents\\190520_Platt
form Tribocut\\01_Instant Quoting\\L\X\D6SUNGEN\\Oroox\\03_CNC calcula
tion\\40_Calculations\\Pockets\\3.3_ANGLED WALLS Pocket_no floor fille
ts_v01.stp',
/* time_stamp */ '2022-03-28T19:34:48+02:00',
/* author */ ('pschwitalla'),
/* organization */ ('igus GmbH'),
/* preprocessor_version */ 'ST-DEVELOPER v18.1',
/* originating_system */ 'Autodesk Inventor 2020',
/* authorisation */ '');

FILE_SCHEMA (('AUTOMOTIVE_DESIGN { 1 0 10303 214 3 1 1 }'));
ENDSEC;

DATA;
#10=MECHANICAL_DESIGN_GEOMETRIC_PRESENTATION_REPRESENTATION('',(#13),#249);
#11=SHAPE_REPRESENTATION_RELATIONSHIP('SRR','None',#256,#12);
#12=ADVANCED_BREP_SHAPE_REPRESENTATION('',(#14),#248);
#13=STYLED_ITEM('',(#265),#14);
#14=MANIFOLD_SOLID_BREP('Solid1',#149);
#15=FACE_OUTER_BOUND('',#23,.T.);
#16=FACE_OUTER_BOUND('',#24,.T.);
#17=FACE_OUTER_BOUND('',#25,.T.);
#18=FACE_OUTER_BOUND('',#26,.T.);
#19=FACE_OUTER_BOUND('',#27,.T.);
#20=FACE_OUTER_BOUND('',#28,.T.);
#21=FACE_OUTER_BOUND('',#29,.T.);
#22=FACE_OUTER_BOUND('',#30,.T.);
#23=EDGE_LOOP('',(#97,#98,#99,#100));
#24=EDGE_LOOP('',(#101,#102,#103,#104));
#25=EDGE_LOOP('',(#105,#106,#107,#108));
#26=EDGE_LOOP('',(#109,#110,#111,#112));
#27=EDGE_LOOP('',(#113,#114,#115,#116,#117,#118));
#28=EDGE_LOOP('',(#119,#120,#121,#122));
#29=EDGE_LOOP('',(#123,#124,#125,#126,#127,#128));
#30=EDGE_LOOP('',(#129,#130,#131,#132));
#31=LINE('',#211,#49);
#32=LINE('',#213,#50);
#33=LINE('',#215,#51);
#34=LINE('',#216,#52);
#35=LINE('',#219,#53);
#36=LINE('',#221,#54);
#37=LINE('',#222,#55);
#38=LINE('',#225,#56);
#39=LINE('',#227,#57);
#40=LINE('',#228,#58);
#41=LINE('',#231,#59);
#42=LINE('',#233,#60);
#43=LINE('',#234,#61);
#44=LINE('',#237,#62);
#45=LINE('',#238,#63);
#46=LINE('',#241,#64);
#47=LINE('',#242,#65);
#48=LINE('',#244,#66);
#49=VECTOR('',#175,10.);
#50=VECTOR('',#176,10.);
#51=VECTOR('',#177,10.);
#52=VECTOR('',#178,10.);
#53=VECTOR('',#181,10.);
#54=VECTOR('',#182,10.);
#55=VECTOR('',#183,10.);
#56=VECTOR('',#186,10.);
#57=VECTOR('',#187,10.);
#58=VECTOR('',#188,10.);
#59=VECTOR('',#191,10.);
#60=VECTOR('',#192,10.);
#61=VECTOR('',#193,10.);
#62=VECTOR('',#196,10.);
#63=VECTOR('',#197,10.);
#64=VECTOR('',#200,10.);
#65=VECTOR('',#201,10.);
#66=VECTOR('',#204,10.);
#67=VERTEX_POINT('',#209);
#68=VERTEX_POINT('',#210);
#69=VERTEX_POINT('',#212);
#70=VERTEX_POINT('',#214);
#71=VERTEX_POINT('',#218);
#72=VERTEX_POINT('',#220);
#73=VERTEX_POINT('',#224);
#74=VERTEX_POINT('',#226);
#75=VERTEX_POINT('',#230);
#76=VERTEX_POINT('',#232);
#77=VERTEX_POINT('',#236);
#78=VERTEX_POINT('',#240);
#79=EDGE_CURVE('',#67,#68,#31,.T.);
#80=EDGE_CURVE('',#69,#67,#32,.T.);
#81=EDGE_CURVE('',#70,#69,#33,.T.);
#82=EDGE_CURVE('',#68,#70,#34,.T.);
#83=EDGE_CURVE('',#71,#67,#35,.T.);
#84=EDGE_CURVE('',#72,#71,#36,.T.);
#85=EDGE_CURVE('',#69,#72,#37,.T.);
#86=EDGE_CURVE('',#73,#71,#38,.T.);
#87=EDGE_CURVE('',#73,#74,#39,.T.);
#88=EDGE_CURVE('',#74,#72,#40,.T.);
#89=EDGE_CURVE('',#70,#75,#41,.T.);
#90=EDGE_CURVE('',#75,#76,#42,.T.);
#91=EDGE_CURVE('',#76,#68,#43,.T.);
#92=EDGE_CURVE('',#77,#76,#44,.T.);
#93=EDGE_CURVE('',#77,#73,#45,.T.);
#94=EDGE_CURVE('',#78,#77,#46,.T.);
#95=EDGE_CURVE('',#78,#75,#47,.T.);
#96=EDGE_CURVE('',#74,#78,#48,.T.);
#97=ORIENTED_EDGE('',*,*,#79,.F.);
#98=ORIENTED_EDGE('',*,*,#80,.F.);
#99=ORIENTED_EDGE('',*,*,#81,.F.);
#100=ORIENTED_EDGE('',*,*,#82,.F.);
#101=ORIENTED_EDGE('',*,*,#83,.F.);
#102=ORIENTED_EDGE('',*,*,#84,.F.);
#103=ORIENTED_EDGE('',*,*,#85,.F.);
#104=ORIENTED_EDGE('',*,*,#80,.T.);
#105=ORIENTED_EDGE('',*,*,#84,.T.);
#106=ORIENTED_EDGE('',*,*,#86,.F.);
#107=ORIENTED_EDGE('',*,*,#87,.T.);
#108=ORIENTED_EDGE('',*,*,#88,.T.);
#109=ORIENTED_EDGE('',*,*,#82,.T.);
#110=ORIENTED_EDGE('',*,*,#89,.T.);
#111=ORIENTED_EDGE('',*,*,#90,.T.);
#112=ORIENTED_EDGE('',*,*,#91,.T.);
#113=ORIENTED_EDGE('',*,*,#79,.T.);
#114=ORIENTED_EDGE('',*,*,#91,.F.);
#115=ORIENTED_EDGE('',*,*,#92,.F.);
#116=ORIENTED_EDGE('',*,*,#93,.T.);
#117=ORIENTED_EDGE('',*,*,#86,.T.);
#118=ORIENTED_EDGE('',*,*,#83,.T.);
#119=ORIENTED_EDGE('',*,*,#94,.T.);
#120=ORIENTED_EDGE('',*,*,#92,.T.);
#121=ORIENTED_EDGE('',*,*,#90,.F.);
#122=ORIENTED_EDGE('',*,*,#95,.F.);
#123=ORIENTED_EDGE('',*,*,#85,.T.);
#124=ORIENTED_EDGE('',*,*,#88,.F.);
#125=ORIENTED_EDGE('',*,*,#96,.T.);
#126=ORIENTED_EDGE('',*,*,#95,.T.);
#127=ORIENTED_EDGE('',*,*,#89,.F.);
#128=ORIENTED_EDGE('',*,*,#81,.T.);
#129=ORIENTED_EDGE('',*,*,#96,.F.);
#130=ORIENTED_EDGE('',*,*,#87,.F.);
#131=ORIENTED_EDGE('',*,*,#93,.F.);
#132=ORIENTED_EDGE('',*,*,#94,.F.);
#133=PLANE('',#163);
#134=PLANE('',#164);
#135=PLANE('',#165);
#136=PLANE('',#166);
#137=PLANE('',#167);
#138=PLANE('',#168);
#139=PLANE('',#169);
#140=PLANE('',#170);
#141=ADVANCED_FACE('',(#15),#133,.F.);
#142=ADVANCED_FACE('',(#16),#134,.F.);
#143=ADVANCED_FACE('',(#17),#135,.T.);
#144=ADVANCED_FACE('',(#18),#136,.T.);
#145=ADVANCED_FACE('',(#19),#137,.T.);
#146=ADVANCED_FACE('',(#20),#138,.T.);
#147=ADVANCED_FACE('',(#21),#139,.T.);
#148=ADVANCED_FACE('',(#22),#140,.F.);
#149=CLOSED_SHELL('',(#141,#142,#143,#144,#145,#146,#147,#148));
#150=DERIVED_UNIT_ELEMENT(#152,1.);
#151=DERIVED_UNIT_ELEMENT(#251,3.);
#152=(
MASS_UNIT()
NAMED_UNIT(*)
SI_UNIT($,.GRAM.)
);
#153=DERIVED_UNIT((#150,#151));
#154=MEASURE_REPRESENTATION_ITEM('density measure',
POSITIVE_RATIO_MEASURE(1.),#153);
#155=PROPERTY_DEFINITION_REPRESENTATION(#160,#157);
#156=PROPERTY_DEFINITION_REPRESENTATION(#161,#158);
#157=REPRESENTATION('material name',(#159),#248);
#158=REPRESENTATION('density',(#154),#248);
#159=DESCRIPTIVE_REPRESENTATION_ITEM('Generic','Generic');
#160=PROPERTY_DEFINITION('material property','material name',#258);
#161=PROPERTY_DEFINITION('material property','density of part',#258);
#162=AXIS2_PLACEMENT_3D('placement',#207,#171,#172);
#163=AXIS2_PLACEMENT_3D('',#208,#173,#174);
#164=AXIS2_PLACEMENT_3D('',#217,#179,#180);
#165=AXIS2_PLACEMENT_3D('',#223,#184,#185);
#166=AXIS2_PLACEMENT_3D('',#229,#189,#190);
#167=AXIS2_PLACEMENT_3D('',#235,#194,#195);
#168=AXIS2_PLACEMENT_3D('',#239,#198,#199);
#169=AXIS2_PLACEMENT_3D('',#243,#202,#203);
#170=AXIS2_PLACEMENT_3D('',#245,#205,#206);
#171=DIRECTION('axis',(0.,0.,1.));
#172=DIRECTION('refdir',(1.,0.,0.));
#173=DIRECTION('center_axis',(-1.50643603574783E-16,0.848048096156426,-0.529919264233204));
#174=DIRECTION('ref_axis',(9.41325709350602E-17,-0.529919264233204,-0.848048096156426));
#175=DIRECTION('',(-1.8826514187012E-16,0.529919264233204,0.848048096156426));
#176=DIRECTION('',(-1.,-1.77635683940025E-16,0.));
#177=DIRECTION('',(9.41325709350602E-17,-0.529919264233204,-0.848048096156426));
#178=DIRECTION('',(1.,1.77635683940025E-16,3.94430452610506E-32));
#179=DIRECTION('center_axis',(-8.50923503924095E-32,4.79027346899169E-16,
-1.));
#180=DIRECTION('ref_axis',(1.77635683940025E-16,-1.,-4.79027346899169E-16));
#181=DIRECTION('',(-3.5527136788005E-16,1.,4.79027346899169E-16));
#182=DIRECTION('',(-1.,-2.368475785867E-16,-2.83641167974699E-32));
#183=DIRECTION('',(1.77635683940025E-16,-1.,-4.79027346899169E-16));
#184=DIRECTION('center_axis',(2.368475785867E-16,-1.,-2.22044604925031E-16));
#185=DIRECTION('ref_axis',(1.,2.368475785867E-16,5.25907270147341E-32));
#186=DIRECTION('',(0.,-2.22044604925031E-16,1.));
#187=DIRECTION('',(1.,2.368475785867E-16,5.25907270147341E-32));
#188=DIRECTION('',(0.,-2.22044604925031E-16,1.));
#189=DIRECTION('center_axis',(0.,-2.22044604925031E-16,1.));
#190=DIRECTION('ref_axis',(0.,-1.,-2.22044604925031E-16));
#191=DIRECTION('',(-1.77635683940025E-16,1.,2.22044604925031E-16));
#192=DIRECTION('',(-1.,-2.368475785867E-16,-5.25907270147341E-32));
#193=DIRECTION('',(3.5527136788005E-16,-1.,-2.22044604925031E-16));
#194=DIRECTION('center_axis',(-1.,-3.5527136788005E-16,-7.88860905221012E-32));
#195=DIRECTION('ref_axis',(3.5527136788005E-16,-1.,-2.22044604925031E-16));
#196=DIRECTION('',(0.,-2.22044604925031E-16,1.));
#197=DIRECTION('',(3.5527136788005E-16,-1.,-2.22044604925031E-16));
#198=DIRECTION('center_axis',(-2.368475785867E-16,1.,2.22044604925031E-16));
#199=DIRECTION('ref_axis',(-1.,-2.368475785867E-16,-5.25907270147341E-32));
#200=DIRECTION('',(-1.,-2.368475785867E-16,-5.25907270147341E-32));
#201=DIRECTION('',(0.,-2.22044604925031E-16,1.));
#202=DIRECTION('center_axis',(1.,1.77635683940025E-16,3.94430452610506E-32));
#203=DIRECTION('ref_axis',(-1.77635683940025E-16,1.,2.22044604925031E-16));
#204=DIRECTION('',(-1.77635683940025E-16,1.,2.22044604925031E-16));
#205=DIRECTION('center_axis',(0.,-2.22044604925031E-16,1.));
#206=DIRECTION('ref_axis',(0.,-1.,-2.22044604925031E-16));
#207=CARTESIAN_POINT('',(0.,0.,0.));
#208=CARTESIAN_POINT('Origin',(87.6661728291922,-18.709972437882,-27.9985228951256));
#209=CARTESIAN_POINT('',(-62.3338271708078,-34.3317062356152,-52.9985228951256));
#210=CARTESIAN_POINT('',(-62.3338271708078,-18.709972437882,-27.9985228951256));
#211=CARTESIAN_POINT('',(-62.3338271708078,-16.9270445868893,-25.145241892393));
#212=CARTESIAN_POINT('',(87.6661728291922,-34.3317062356152,-52.9985228951256));
#213=CARTESIAN_POINT('',(87.6661728291922,-34.3317062356152,-52.9985228951256));
#214=CARTESIAN_POINT('',(87.6661728291922,-18.709972437882,-27.9985228951256));
#215=CARTESIAN_POINT('',(87.6661728291922,-30.9677659171623,-47.6150930498721));
#216=CARTESIAN_POINT('',(50.1661728291922,-18.709972437882,-27.9985228951256));
#217=CARTESIAN_POINT('Origin',(87.6661728291922,-34.3317062356152,-52.9985228951256));
#218=CARTESIAN_POINT('',(-62.3338271708078,-50.,-52.9985228951256));
#219=CARTESIAN_POINT('',(-62.3338271708078,7.83414688219237,-52.9985228951256));
#220=CARTESIAN_POINT('',(87.6661728291922,-50.,-52.9985228951256));
#221=CARTESIAN_POINT('',(12.6661728291922,-50.,-52.9985228951256));
#222=CARTESIAN_POINT('',(87.6661728291922,-42.1658531178076,-52.9985228951256));
#223=CARTESIAN_POINT('Origin',(-62.3338271708078,-50.,-62.9985228951256));
#224=CARTESIAN_POINT('',(-62.3338271708078,-50.,-62.9985228951256));
#225=CARTESIAN_POINT('',(-62.3338271708078,-50.,-62.9985228951256));
#226=CARTESIAN_POINT('',(87.6661728291922,-50.,-62.9985228951256));
#227=CARTESIAN_POINT('',(-62.3338271708078,-50.,-62.9985228951256));
#228=CARTESIAN_POINT('',(87.6661728291922,-50.,-62.9985228951256));
#229=CARTESIAN_POINT('Origin',(12.6661728291922,-2.66453525910038E-14,-27.9985228951256));
#230=CARTESIAN_POINT('',(87.6661728291922,50.,-27.9985228951256));
#231=CARTESIAN_POINT('',(87.6661728291922,-50.,-27.9985228951256));
#232=CARTESIAN_POINT('',(-62.3338271708079,50.,-27.9985228951256));
#233=CARTESIAN_POINT('',(87.6661728291922,50.,-27.9985228951256));
#234=CARTESIAN_POINT('',(-62.3338271708079,50.,-27.9985228951256));
#235=CARTESIAN_POINT('Origin',(-62.3338271708079,50.,-62.9985228951256));
#236=CARTESIAN_POINT('',(-62.3338271708079,50.,-62.9985228951256));
#237=CARTESIAN_POINT('',(-62.3338271708079,50.,-62.9985228951256));
#238=CARTESIAN_POINT('',(-62.3338271708079,50.,-62.9985228951256));
#239=CARTESIAN_POINT('Origin',(87.6661728291922,50.,-62.9985228951256));
#240=CARTESIAN_POINT('',(87.6661728291922,50.,-62.9985228951256));
#241=CARTESIAN_POINT('',(87.6661728291922,50.,-62.9985228951256));
#242=CARTESIAN_POINT('',(87.6661728291922,50.,-62.9985228951256));
#243=CARTESIAN_POINT('Origin',(87.6661728291922,-50.,-62.9985228951256));
#244=CARTESIAN_POINT('',(87.6661728291922,-50.,-62.9985228951256));
#245=CARTESIAN_POINT('Origin',(12.6661728291922,-1.77635683940025E-14,-62.9985228951256));
#246=UNCERTAINTY_MEASURE_WITH_UNIT(LENGTH_MEASURE(0.01),#250,
'DISTANCE_ACCURACY_VALUE',
'Maximum model space distance between geometric entities at asserted c
onnectivities');
#247=UNCERTAINTY_MEASURE_WITH_UNIT(LENGTH_MEASURE(0.01),#250,
'DISTANCE_ACCURACY_VALUE',
'Maximum model space distance between geometric entities at asserted c
onnectivities');
#248=(
GEOMETRIC_REPRESENTATION_CONTEXT(3)
GLOBAL_UNCERTAINTY_ASSIGNED_CONTEXT((#246))
GLOBAL_UNIT_ASSIGNED_CONTEXT((#250,#252,#253))
REPRESENTATION_CONTEXT('','3D')
);
#249=(
GEOMETRIC_REPRESENTATION_CONTEXT(3)
GLOBAL_UNCERTAINTY_ASSIGNED_CONTEXT((#247))
GLOBAL_UNIT_ASSIGNED_CONTEXT((#250,#252,#253))
REPRESENTATION_CONTEXT('','3D')
);
#250=(
LENGTH_UNIT()
NAMED_UNIT(*)
SI_UNIT(.MILLI.,.METRE.)
);
#251=(
LENGTH_UNIT()
NAMED_UNIT(*)
SI_UNIT(.CENTI.,.METRE.)
);
#252=(
NAMED_UNIT(*)
PLANE_ANGLE_UNIT()
SI_UNIT($,.RADIAN.)
);
#253=(
NAMED_UNIT(*)
SI_UNIT($,.STERADIAN.)
SOLID_ANGLE_UNIT()
);
#254=SHAPE_DEFINITION_REPRESENTATION(#255,#256);
#255=PRODUCT_DEFINITION_SHAPE('',$,#258);
#256=SHAPE_REPRESENTATION('',(#162),#248);
#257=PRODUCT_DEFINITION_CONTEXT('part definition',#262,'design');
#258=PRODUCT_DEFINITION('ANGLED WALLS Pocket_03_no floor fillets_v01',
'3.3_ANGLED WALLS Pocket_no floor fillets_v01',#259,#257);
#259=PRODUCT_DEFINITION_FORMATION('',$,#264);
#260=PRODUCT_RELATED_PRODUCT_CATEGORY(
'3.3_ANGLED WALLS Pocket_no floor fillets_v01',
'3.3_ANGLED WALLS Pocket_no floor fillets_v01',(#264));
#261=APPLICATION_PROTOCOL_DEFINITION('international standard',
'automotive_design',2009,#262);
#262=APPLICATION_CONTEXT(
'Core Data for Automotive Mechanical Design Process');
#263=PRODUCT_CONTEXT('part definition',#262,'mechanical');
#264=PRODUCT('ANGLED WALLS Pocket_03_no floor fillets_v01',
'3.3_ANGLED WALLS Pocket_no floor fillets_v01',$,(#263));
#265=PRESENTATION_STYLE_ASSIGNMENT((#266));
#266=SURFACE_STYLE_USAGE(.BOTH.,#269);
#267=SURFACE_STYLE_RENDERING_WITH_PROPERTIES($,#273,(#268));
#268=SURFACE_STYLE_TRANSPARENT(0.);
#269=SURFACE_SIDE_STYLE('',(#270,#267));
#270=SURFACE_STYLE_FILL_AREA(#271);
#271=FILL_AREA_STYLE('',(#272));
#272=FILL_AREA_STYLE_COLOUR('',#273);
#273=COLOUR_RGB('',0.749019607843137,0.749019607843137,0.749019607843137);
ENDSEC;
END-ISO-10303-21;
