<svg width="20" height="20" viewBox="0 0 20 20" fill="none" xmlns="http://www.w3.org/2000/svg">
<rect x="4" y="10" width="14" height="8" fill="#C8CCD0"/>
<rect x="11" y="4" width="7" height="14" fill="#C8CCD0"/>
</svg>
