10 10 0
20 10 0
30 10 0
40 10 0
50 10 0
60 10 0
70 10 0
10 20 0
70 20 0
10 30 0
70 30 0
10 40 0
70 40 0
10 50 0
70 50 0
10 60 0
70 60 0
10 70 0
20 70 0
30 70 0
40 70 0
50 70 0
60 70 0
70 70 0
40 40 2.5